…
::: {.cell}

```{.r .cell-code}
aus_retail |>
  filter(`Series ID`=="A3349640L") |>
  model(ETS(Turnover)) |>
  forecast(h = "2 years")
```

::: {.cell-output .cell-output-stdout}

```
# A fable: 24 x 6 [1M]
# Key:     State, Industry, .model [1]
   State    Industry                                 .model           Month
   <chr>    <chr>                                    <chr>            <mth>
 1 Victoria Cafes, restaurants and catering services ETS(Turnover) 2019 Jan
 2 Victoria Cafes, restaurants and catering services ETS(Turnover) 2019 Feb
 3 Victoria Cafes, restaurants and catering services ETS(Turnover) 2019 Mar
 4 Victoria Cafes, restaurants and catering services ETS(Turnover) 2019 Apr
 5 Victoria Cafes, restaurants and catering services ETS(Turnover) 2019 May
 6 Victoria Cafes, restaurants and catering services ETS(Turnover) 2019 Jun
 7 Victoria Cafes, restaurants and catering services ETS(Turnover) 2019 Jul
 8 Victoria Cafes, restaurants and catering services ETS(Turnover) 2019 Aug
 9 Victoria Cafes, restaurants and catering services ETS(Turnover) 2019 Sep
10 Victoria Cafes, restaurants and catering services ETS(Turnover) 2019 Oct
# ℹ 14 more rows
# ℹ 2 more variables: Turnover <dist>, .mean <dbl>
```
…
